index,pubchem_cid,InChI,SMILES,num_atoms
0,US07323448-20080129-C00047,"synthetic/chemdraw/US07323448-20080129-C00047.png",CC(CN(O)C=O)C(=O)N[C@H](C(=O)N(C)C)C(C)(C)C,0
1,USRE039991-20080101-C00307,"synthetic/chemdraw/USRE039991-20080101-C00307.png",COC1=CC=NC(C(=O)NC2=CC=CC(OC3=CC=C(C)C=C3)=C2)=C1O,0
2,7124385,"InChI=1S/C17H18ClN3O4S/c1-2-21(15(23)7-8-16(24)25)17-20-13(10-26-17)9-14(22)19-12-5-3-11(18)4-6-12/h3-6,10H,2,7-9H2,1H3,(H,19,22)(H,24,25)/p-1",CCN(C1=NC(=CS1)CC(=O)NC2=CC=C(C=C2)Cl)C(=O)CCC(=O)[O-],26
3,10224292,"InChI=1S/C23H17Cl2NO3/c24-18-12-17(15-6-7-20-16(11-15)8-9-26-20)13-19(25)22(18)29-21(23(27)28)10-14-4-2-1-3-5-14/h1-9,11-13,21,26H,10H2,(H,27,28)/t21-/m1/s1",C1=CC=C(C=C1)C[C@H](C(=O)O)OC2=C(C=C(C=C2Cl)C3=CC4=C(C=C3)NC=C4)Cl,29
4,8237725,"InChI=1S/C21H18N2O2/c24-21-18-10-4-5-11-19(18)22-20(13-12-16-7-2-1-3-8-16)23(21)15-17-9-6-14-25-17/h1-14,20,22H,15H2/b13-12+/t20-/m0/s1",C1=CC=C(C=C1)/C=C/[C@H]2NC3=CC=CC=C3C(=O)N2CC4=CC=CO4,25
5,10447381,"InChI=1S/C14H18O7/c1-7(16)8-2-4-9(5-3-8)20-14-13(19)12(18)11(17)10(6-15)21-14/h2-5,10-15,17-19H,6H2,1H3/t10-,11-,12+,13-,14-/m0/s1",CC(=O)C1=CC=C(C=C1)O[C@@H]2[C@H]([C@@H]([C@H]([C@@H](O2)CO)O)O)O,21
6,10422428,"InChI=1S/C12H15FN2O3/c1-7(14)11(16)15-10(12(17)18)6-8-2-4-9(13)5-3-8/h2-5,7,10H,6,14H2,1H3,(H,15,16)(H,17,18)/t7-,10+/m1/s1",C[C@H](C(=O)N[C@@H](CC1=CC=C(C=C1)F)C(=O)O)N,18
7,11702415,"InChI=1S/C21H22BNO/c23-21(16-18-10-4-1-5-11-18)17-24-22(19-12-6-2-7-13-19)20-14-8-3-9-15-20/h1-15,21H,16-17,23H2/t21-/m0/s1",B(C1=CC=CC=C1)(C2=CC=CC=C2)OC[C@H](CC3=CC=CC=C3)N,24
8,11807510,"InChI=1S/C9H13NO6S/c1-16-9(15)3-2-17-8-6(13)4(11)5(12)7(14)10(3)8/h3-6,8,11-13H,2H2,1H3/t3-,4+,5-,6-,8-/m0/s1",COC(=O)[C@@H]1CS[C@@H]2N1C(=O)[C@H]([C@H]([C@@H]2O)O)O,17
9,4281044,"InChI=1S/C28H21ClN4O4/c29-20-13-15-21(16-14-20)31-26(34)24-11-4-5-12-25(24)32-27(35)28(36)33-30-18-19-7-6-10-23(17-19)37-22-8-2-1-3-9-22/h1-18H,(H,31,34)(H,32,35)(H,33,36)",C1=CC=C(C=C1)OC2=CC=CC(=C2)C=NNC(=O)C(=O)NC3=CC=CC=C3C(=O)NC4=CC=C(C=C4)Cl,37
10,964755,"InChI=1S/C15H17NO2/c17-14-8-4-7-13(9-14)15(18)11-16-10-12-5-2-1-3-6-12/h1-9,15-18H,10-11H2/t15-/m1/s1",C1=CC=C(C=C1)CNC[C@H](C2=CC(=CC=C2)O)O,18
11,431480,"InChI=1S/C14H19N5O2S2/c1-9(20)16-6-3-12-18-11(8-22-12)14-19-10(7-23-14)13(21)17-5-2-4-15/h7-8H,2-6,15H2,1H3,(H,16,20)(H,17,21)",CC(=O)NCCC1=NC(=CS1)C2=NC(=CS2)C(=O)NCCCN,23
12,14676833,"InChI=1S/C21H21ClN2.ClH/c1-21(2,3)16-6-4-14(5-7-16)19-13-15-12-17(22)8-9-18(15)20-23-10-11-24(19)20;/h4-9,12-13H,10-11H2,1-3H3;1H",CC(C)(C)C1=CC=C(C=C1)C2=CC3=C(C=CC(=C3)Cl)C4=NCCN24.Cl,25
13,7859141,"InChI=1S/C20H24N4O5/c25-16(21-9-4-11-23-10-3-7-17(23)26)13-24-18(27)20(22-19(24)28)8-12-29-15-6-2-1-5-14(15)20/h1-2,5-6H,3-4,7-13H2,(H,21,25)(H,22,28)/t20-/m0/s1",C1CC(=O)N(C1)CCCNC(=O)CN2C(=O)[C@@]3(CCOC4=CC=CC=C43)NC2=O,29
14,7703906,"InChI=1S/C18H20ClN3O5/c1-9(2)13(10-4-6-11(19)7-5-10)17(25)27-8-12(23)14-15(20)22(3)18(26)21-16(14)24/h4-7,9,13H,8,20H2,1-3H3,(H,21,24,26)/t13-/m0/s1",CC(C)[C@@H](C1=CC=C(C=C1)Cl)C(=O)OCC(=O)C2=C(N(C(=O)NC2=O)C)N,27
15,8860652,"InChI=1S/C14H18N2O4/c1-9(2)14(19)20-10(3)12(17)15-16-13(18)11-7-5-4-6-8-11/h4-10H,1-3H3,(H,15,17)(H,16,18)/t10-/m1/s1",C[C@H](C(=O)NNC(=O)C1=CC=CC=C1)OC(=O)C(C)C,20
16,7063629,"InChI=1S/C13H16N2O7S/c14-12(16)4-2-9(13(17)18)15-23(19,20)8-1-3-10-11(7-8)22-6-5-21-10/h1,3,7,9,15H,2,4-6H2,(H2,14,16)(H,17,18)/p-1/t9-/m1/s1",C1COC2=C(O1)C=CC(=C2)S(=O)(=O)N[C@H](CCC(=O)N)C(=O)[O-],23
17,11513452,"InChI=1S/C40H64N10O10/c1-22(2)19-26(41)34(54)46-28(15-16-32(51)52)36(56)47-27(13-9-17-44-40(42)43)35(55)45-24(5)33(53)48-29(21-25-11-7-6-8-12-25)38(58)50-18-10-14-31(50)37(57)49-30(39(59)60)20-23(3)4/h6-8,11-12,22-24,26-31H,9-10,13-21,41H2,1-5H3,(H,45,55)(H,46,54)(H,47,56)(H,48,53)(H,49,57)(H,51,52)(H,59,60)(H4,42,43,44)/t24-,26-,27-,28-,29-,30-,31-/m0/s1",C[C@@H](C(=O)N[C@@H](CC1=CC=CC=C1)C(=O)N2CCC[C@H]2C(=O)N[C@@H](CC(C)C)C(=O)O)NC(=O)[C@H](CCCN=C(N)N)NC(=O)[C@H](CCC(=O)O)NC(=O)[C@H](CC(C)C)N,60
18,866412,"InChI=1S/C17H21N5/c1-5-13(4)21-16-14-9-20-22(17(14)19-10-18-16)15-7-6-11(2)8-12(15)3/h6-10,13H,5H2,1-4H3,(H,18,19,21)/t13-/m0/s1",CC[C@H](C)NC1=C2C=NN(C2=NC=N1)C3=C(C=C(C=C3)C)C,22
19,3595746,"InChI=1S/C22H31N3O3/c1-3-4-5-6-7-11-20(26)25-14-12-17(13-15-25)22-23-21(24-28-22)18-9-8-10-19(16-18)27-2/h8-10,16-17H,3-7,11-15H2,1-2H3",CCCCCCCC(=O)N1CCC(CC1)C2=NC(=NO2)C3=CC(=CC=C3)OC,28
20,10952018,"InChI=1S/C29H30INO4/c30-20-12-4-11-19-25-28(32)35-27(24-17-9-3-10-18-24)26(23-15-7-2-8-16-23)31(25)29(33)34-21-22-13-5-1-6-14-22/h1-3,5-10,13-18,25-27H,4,11-12,19-21H2/t25-,26-,27+/m0/s1",C1=CC=C(C=C1)COC(=O)N2[C@H](C(=O)O[C@@H]([C@@H]2C3=CC=CC=C3)C4=CC=CC=C4)CCCCCI,35
21,10743537,"InChI=1S/C32H22O5/c33-29-18-16-24(12-6-2-5-11-22(29)19-21-9-3-1-4-10-21)37-32(36)23-15-17-27-28(20-23)31(35)26-14-8-7-13-25(26)30(27)34/h1,3-4,7-10,13-15,17,19-20,24,29,33H,2,6,12H2/b22-19+",C1CC#C/C(=C\C2=CC=CC=C2)/C(C#CC(C1)OC(=O)C3=CC4=C(C=C3)C(=O)C5=CC=CC=C5C4=O)O,37
